<?xml version="1.0" encoding="utf-8"?>
<!-- Generator: Adobe Illustrator 17.1.0, SVG Export Plug-In . SVG Version: 6.00 Build 0)  -->
<!DOCTYPE svg PUBLIC "-//W3C//DTD SVG 1.1//EN" "http://www.w3.org/Graphics/SVG/1.1/DTD/svg11.dtd">
<svg version="1.1" id="Layer_1" xmlns="http://www.w3.org/2000/svg" xmlns:xlink="http://www.w3.org/1999/xlink" x="0px" y="0px"
	 viewBox="768 512 576 1024" enable-background="new 768 512 576 1024" xml:space="preserve">
<path fill="#fff" d="M1344,576v896c0,17.3-6.3,32.3-19,45s-27.7,19-45,19s-32.3-6.3-45-19l-448-448c-12.7-12.7-19-27.7-19-45
	c0-17.3,6.3-32.3,19-45l448-448c12.7-12.7,27.7-19,45-19s32.3,6.3,45,19S1344,558.7,1344,576z"/>
</svg>
