<?xml version="1.0" encoding="utf-8"?>
<!-- Generator: Adobe Illustrator 17.1.0, SVG Export Plug-In . SVG Version: 6.00 Build 0)  -->
<!DOCTYPE svg PUBLIC "-//W3C//DTD SVG 1.1//EN" "http://www.w3.org/Graphics/SVG/1.1/DTD/svg11.dtd">
<svg version="1.1" id="Layer_1" xmlns="http://www.w3.org/2000/svg" xmlns:xlink="http://www.w3.org/1999/xlink" x="0px" y="0px"
	 viewBox="0 0 612 612" enable-background="new 0 0 612 612" xml:space="preserve">
<path fill="#fff" d="M520.1,429.1c0.3,9.6-3,18.2-6.6,26.7c-1.1,3-3,6.3-7.4,5.8c-3.9-0.6-4.1-3.6-5.2-6.6
	c-3.9-9.9-8-19.8-18.2-25.3c-7.7-4.4-4.4-11.8-3.3-17.6c1.7-9.1,5-17.9,8.3-26.4c2.2-5.8,6.3-8,11.8-3
	C513.5,395,519.8,410.7,520.1,429.1L520.1,429.1z"/>
<path fill="#fff" d="M605.1,113.2L605.1,113.2c-1.7-0.6-3.3-1.4-4.7-1.4C539.4,97.3,481,106.6,425.7,135
	c-9.4,4.7-17.6,5.8-27.2,3.3c-10.2-2.8-20.6-5-31.1-7.2c-13.8-3-19.3-0.3-22.8,13.2c-7.4,29.2-2.5,57,12.9,82.8
	c2.2,3.6,7.2,6.1,5.2,11.6c-7.7-4.4-16-8.3-22.3-14.6c-3.6-3.6-5.8-2.8-9.6-0.6c-17.6,9.6-34.1,20.1-50.4,31.9
	c-55.3,40.7-98.8,90.8-128,153.3c-12.1,25.9-22.8,52.6-28.9,80.9c-1.9,9.9-6.1,11.6-14,5.5c-10.5-8-19.8-16.8-27.5-27.5
	c-14.6-19.8-20.4-42.4-22-66.3c-0.8-14.6-0.3-28.9,3.9-42.9c9.6-33.8,33.8-56.4,58.6-79c23.1-21.2,50.1-38.3,68-65.2
	c14-21.2,20.6-44.6,17.1-69.3c-6.3-43.8-33-72.4-74.3-85C90,46.9,52.3,59.6,22.8,93.4C9.4,108.8,2.5,127.5,0.3,147.6
	c-1.1,9.4,5.2,11.3,11.6,12.7c6.6,1.4,6.1-4.7,7.2-8.8c3-12.7,6.9-25,14.3-36c19-28.9,46.2-39.9,79.8-34.9
	c31.1,4.7,52,22.8,61.9,52.3c10.7,32.2,3,60.8-21.7,83.4c-14.3,12.9-30.5,24.5-47.3,34.4C31.4,294.9,2.2,385.9,32.5,459.1
	c18.4,44.6,47.9,77.6,93,96c13.2,2.8,26.4,1.9,39.9,1.9h141.4c12.1,0,15.1-3.3,14.9-15.4c0-2.5-0.6-4.7-0.6-7.2
	c-1.1-21.7,14.9-38.3,36.3-38c10.5,0.3,18.4,5.8,26.4,10.7c21.2,12.9,40.5,28.1,59.2,44.6c3.3,3,6.6,6.1,11.8,3.6
	c5.2-2.5,3.9-6.9,3.9-10.7c0.3-24.5,0.6-49,3.6-73.2c10.7-87.2,38.5-167.6,95.8-236.1c24.2-29.2,43.8-61.4,52.8-99.1
	C613.1,127,612.6,119.6,605.1,113.2z M500.3,173.2c-9.1,0-17.6-8.8-17.6-18.2s8.5-18.2,17.6-18.2c9.1-0.3,17.6,8.5,17.6,18.2
	C517.9,164.1,509.1,173.2,500.3,173.2z"/>
</svg>
